<svg xmlns="http://www.w3.org/2000/svg" width="43" height="37" viewBox="0 0 43 37" fill="none">
  <g filter="url(#filter0_d_31_1634)">
    <path d="M6 2H37" stroke="black" stroke-width="4" stroke-linecap="round"/>
  </g>
  <g filter="url(#filter1_d_31_1634)">
    <path d="M6 14H37" stroke="black" stroke-width="4" stroke-linecap="round"/>
  </g>
  <g filter="url(#filter2_d_31_1634)">
    <path d="M6 27H37" stroke="black" stroke-width="4" stroke-linecap="round"/>
  </g>
  <defs>
    <filter id="filter0_d_31_1634" x="0" y="0" width="43" height="12" filterUnits="userSpaceOnUse" color-interpolation-filters="sRGB">
      <feFlood flood-opacity="0" result="BackgroundImageFix"/>
      <feColorMatrix in="SourceAlpha" type="matrix" values="0 0 0 0 0 0 0 0 0 0 0 0 0 0 0 0 0 0 127 0" result="hardAlpha"/>
      <feOffset dy="4"/>
      <feGaussianBlur stdDeviation="2"/>
      <feComposite in2="hardAlpha" operator="out"/>
      <feColorMatrix type="matrix" values="0 0 0 0 0 0 0 0 0 0 0 0 0 0 0 0 0 0 0.25 0"/>
      <feBlend mode="normal" in2="BackgroundImageFix" result="effect1_dropShadow_31_1634"/>
      <feBlend mode="normal" in="SourceGraphic" in2="effect1_dropShadow_31_1634" result="shape"/>
    </filter>
    <filter id="filter1_d_31_1634" x="0" y="12" width="43" height="12" filterUnits="userSpaceOnUse" color-interpolation-filters="sRGB">
      <feFlood flood-opacity="0" result="BackgroundImageFix"/>
      <feColorMatrix in="SourceAlpha" type="matrix" values="0 0 0 0 0 0 0 0 0 0 0 0 0 0 0 0 0 0 127 0" result="hardAlpha"/>
      <feOffset dy="4"/>
      <feGaussianBlur stdDeviation="2"/>
      <feComposite in2="hardAlpha" operator="out"/>
      <feColorMatrix type="matrix" values="0 0 0 0 0 0 0 0 0 0 0 0 0 0 0 0 0 0 0.25 0"/>
      <feBlend mode="normal" in2="BackgroundImageFix" result="effect1_dropShadow_31_1634"/>
      <feBlend mode="normal" in="SourceGraphic" in2="effect1_dropShadow_31_1634" result="shape"/>
    </filter>
    <filter id="filter2_d_31_1634" x="0" y="25" width="43" height="12" filterUnits="userSpaceOnUse" color-interpolation-filters="sRGB">
      <feFlood flood-opacity="0" result="BackgroundImageFix"/>
      <feColorMatrix in="SourceAlpha" type="matrix" values="0 0 0 0 0 0 0 0 0 0 0 0 0 0 0 0 0 0 127 0" result="hardAlpha"/>
      <feOffset dy="4"/>
      <feGaussianBlur stdDeviation="2"/>
      <feComposite in2="hardAlpha" operator="out"/>
      <feColorMatrix type="matrix" values="0 0 0 0 0 0 0 0 0 0 0 0 0 0 0 0 0 0 0.25 0"/>
      <feBlend mode="normal" in2="BackgroundImageFix" result="effect1_dropShadow_31_1634"/>
      <feBlend mode="normal" in="SourceGraphic" in2="effect1_dropShadow_31_1634" result="shape"/>
    </filter>
  </defs>
</svg>